{
    "inputFileName" : "metadata_xls/11351.xlsx",
    "metadataDir" : "metadata/",
    "startRow" : 2,
    "endRow" : 2,
    "mapping":
    [
        {
            "header": "DocStrctType",
            "replaceExisting": true,
            "type" : "DocStrctType",
            "xPathFind" : ".//mets:div[@DMDID='DMDLOG_0000']"
        },
        {
            "ugh": "RestrictionOnAccessLicense",
            "header": "RestrictionOnAccessLicense"
        },
        {
            "ugh": "UseAndReproductionLicense",
            "header": "UseAndReproductionLicense"
        },
        {
            "normDataHeader" : "Person_QID",
            "normDataAuthority" : "wikidata",
            "type": "person",
            "ugh" : "Creator",
            "firstNameHeader" : "Person_Vorname",
            "lastNameHeader" : "Person_Nachname",
            "termsOfAddressHeader" : "Person_Namenszusatz",
            "displayNameHeader" : "Person_Ansetzung", 
            "dateHeader" : "Person_Lebensdaten",              
            "header" : "Person_Ansetzung"
        }        
    ]
}